Desafios e Requesitos de Projetos Analíticos
…
waysides_r$`TRACKING_ERROR_(TE)` <- as.numeric(waysides_r$`TRACKING_ERROR_(TE)`)
waysides_r$TRACKING_ERROR <- waysides_r$`TRACKING_ERROR_(TE)`
waysides_r$`TRACKING_ERROR_(TE)` <- NULL

waysides_r$`SERPENTEAMENTO_(HUNTING)` <- as.numeric(waysides_r$`SERPENTEAMENTO_(HUNTING)`)
waysides_r$SERPENTEAMENTO <- waysides_r$`SERPENTEAMENTO_(HUNTING)`
waysides_r$`SERPENTEAMENTO_(HUNTING)` <- NULL

Quantidades e proporções de NAs

miss_var_summary(waysides_r)

## # A tibble: 26 x 3
##    variable                               n_miss pct_miss
##    <chr>                                   <int>    <dbl>
##  1 CAVA_RODA                              607049   20.5  
##  2 ANGULO_FRISO_RODA                      287408    9.69 
##  3 TRACKING_ERROR                          19763    0.666
##  4 ALINHAMENTO_ENTRE_EIXOS                 19731    0.665
##  5 DESLOCAMENTO_ENTRE_EIXOS                19731    0.665
##  6 ANGULO_ATAQUE_EIXO_FRONTAL_TRUQUE       19723    0.665
##  7 ANGULO_ATAQUE_EIXO_TRASEIRO_TRUQUE      19723    0.665
##  8 TRACKING_POSITION_EIXO_FRONTAL_TRUQUE   19723    0.665
##  9 TRACKING_POSITION_EIXO_TRASEIRO_TRUQUE  19723    0.665
## 10 ROTACAO_EIXO                            19723    0.665
## # ... with 16 more rows
…
